"","","","","",""
"","","","","",""
"ARJUN S","KTE16CE016","CIVIL ENGINEERING","INTRODUCTION TO CIVIL ENGINEERING (BE10101)","",""
"MITHUN KURIAKOSE","KTE16CE043","CIVIL ENGINEERING","INTRODUCTION TO CIVIL ENGINEERING (BE10101)","",""
"NEHA KRISHNA","KTE16CE046","CIVIL ENGINEERING","INTRODUCTION TO CIVIL ENGINEERING (BE10101)","",""
"VIKAS S. P.","KTE16CE061","CIVIL ENGINEERING","INTRODUCTION TO CIVIL ENGINEERING (BE10101)","",""
"YASIR K","KTE16CE063","CIVIL ENGINEERING","INTRODUCTION TO CIVIL ENGINEERING (BE10101)","",""
